…
1.  Find the number of names per year per gender, and arrange your
    output from the most recent to oldest.

``` r
names_by_year |>
  group_by(Year, Gender) |>
  summarize(n()) |>
  arrange(desc(Year))
```

    ## `summarise()` has grouped output by 'Year'. You can override using the
    ## `.groups` argument.

    ## # A tibble: 286 × 3
    ## # Groups:   Year [143]
    ##     Year Gender `n()`
    ##    <dbl> <chr>  <int>
    ##  1  2022 F      17660
    ##  2  2022 M      14255
    ##  3  2021 F      17628
    ##  4  2021 M      14057
    ##  5  2020 F      17485
    ##  6  2020 M      14032
    ##  7  2019 F      17997
    ##  8  2019 M      14112
    ##  9  2018 F      18126
    ## 10  2018 M      14095
    ## # ℹ 276 more rows
…
